123,123,123,123,123,123,123,123,123,123,-1,123,123,123,107,123,83,123,123,123,123,123,123,123,123,123,83,123,107,123,123,123,-1,123,123,123,123,106,123,123,123,123,123,123,123,106,123,123,123,123
123,49,43,47,47,49,50,44,44,123,-1,123,46,47,47,47,49,49,47,45,43,45,49,44,48,43,50,50,45,43,50,123,-1,123,49,49,43,45,45,50,49,43,43,66,48,49,50,47,43,123
123,44,45,47,43,44,44,48,47,123,-1,123,44,35,43,44,49,44,49,48,46,49,45,57,44,50,45,43,48,37,47,123,-1,123,45,50,49,30,47,46,45,158,50,50,47,43,50,48,44,123
123,50,46,44,34,158,46,45,45,123,-1,123,46,45,46,43,20,46,50,44,43,46,49,49,46,50,20,46,47,43,46,123,-1,123,49,45,43,43,43,50,43,43,44,49,49,45,46,47,49,123
123,46,47,50,43,50,50,44,48,123,-1,123,44,37,47,45,45,44,43,43,45,48,44,49,43,49,47,48,50,35,47,123,-1,123,48,44,46,46,43,45,46,43,45,47,48,45,45,45,45,123
123,48,45,48,48,48,43,48,50,123,-1,123,50,47,47,47,57,48,45,43,43,48,44,44,43,50,44,50,45,47,48,123,-1,123,123,113,123,46,48,123,123,123,123,123,48,47,123,123,123,123
123,44,47,43,46,44,44,46,45,123,-1,123,49,45,50,43,47,47,48,43,50,48,43,47,50,47,43,46,47,44,49,123,-1,-1,-1,-1,123,49,43,123,-1,-1,-1,123,50,49,123,-1,-1,-1
123,123,80,49,50,80,123,123,123,123,-1,123,123,123,123,123,123,123,123,83,43,46,83,123,123,123,123,123,123,123,123,123,-1,123,123,123,123,49,49,123,123,123,123,123,44,49,123,123,123,123
-1,-1,123,47,43,123,-1,-1,-1,-1,-1,-1,-1,-1,-1,-1,-1,-1,-1,123,43,47,123,-1,-1,-1,-1,-1,-1,-1,-1,-1,-1,123,50,47,45,44,43,44,43,49,45,46,48,44,48,46,46,123
-1,-1,123,48,46,123,-1,-1,-1,-1,-1,-1,-1,-1,123,123,123,123,123,83,47,47,83,123,123,123,123,123,123,123,-1,-1,-1,123,48,50,44,43,45,45,43,49,45,46,46,45,44,50,45,123
-1,-1,123,47,48,123,-1,-1,-1,-1,-1,-1,-1,-1,123,47,47,45,44,46,45,45,48,48,45,50,49,44,45,123,-1,-1,-1,123,49,45,45,43,48,44,44,44,43,47,46,49,60,45,43,123
-1,-1,123,47,49,123,-1,-1,-1,-1,-1,-1,-1,-1,123,47,46,45,47,47,44,44,46,45,45,50,50,45,47,123,-1,-1,-1,123,47,50,43,44,48,43,50,43,49,44,44,50,47,43,46,123
123,123,82,44,43,82,123,123,123,123,123,123,-1,-1,123,50,49,44,48,43,45,43,48,43,44,43,44,47,47,123,-1,-1,-1,123,50,50,47,45,43,43,50,48,44,45,44,47,50,43,47,123
123,48,46,48,46,43,45,45,47,46,48,123,-1,-1,123,48,45,50,45,49,49,45,43,46,48,45,44,46,43,123,123,123,123,123,50,43,45,46,50,47,45,47,43,44,49,48,43,49,45,123
123,48,50,50,48,47,49,44,46,46,47,82,123,123,82,43,43,47,47,49,48,47,68,49,50,46,46,48,46,44,45,50,47,44,50,46,46,48,50,46,47,46,45,47,43,50,46,46,50,123
123,49,43,44,45,50,60,49,48,45,48,47,45,49,43,50,48,46,50,50,47,45,44,45,47,49,46,43,44,48,48,43,43,43,48,48,45,60,47,45,48,45,50,49,44,49,43,47,50,123
123,47,49,47,49,48,48,47,50,48,47,47,47,47,49,44,43,44,47,47,50,46,45,50,48,46,49,48,49,123,123,123,123,123,49,44,46,46,47,49,46,50,43,47,45,48,46,46,45,123
123,45,47,48,45,50,47,45,47,44,46,82,123,123,82,45,49,50,47,50,48,47,48,48,48,48,47,43,45,123,-1,-1,-1,123,44,50,43,49,50,43,43,43,43,49,48,45,48,50,48,123
123,123,123,123,123,123,82,49,50,82,123,123,50,44,123,45,46,49,49,50,43,46,48,46,43,43,49,47,43,123,-1,-1,-1,123,50,47,47,43,45,46,46,43,43,48,43,72,43,43,46,123
-1,-1,-1,-1,-1,-1,116,43,46,116,50,46,47,45,123,43,45,45,46,50,47,46,49,47,50,44,48,50,47,123,-1,-1,-1,123,44,50,46,48,48,45,50,47,44,50,44,49,44,44,49,123
-1,-1,-1,-1,-1,-1,116,50,45,116,43,43,46,49,123,123,123,123,123,123,123,123,123,123,123,123,123,123,123,123,-1,-1,-1,123,50,47,45,45,47,49,43,43,43,50,43,44,47,43,43,123
116,116,116,116,116,116,116,47,44,116,50,44,49,47,116,-1,-1,-1,-1,-1,-1,-1,-1,-1,-1,-1,-1,-1,-1,-1,-1,-1,-1,123,123,123,123,47,44,123,123,123,123,123,45,45,123,123,123,123
116,49,46,49,49,45,46,46,48,47,43,45,49,44,116,116,-1,-1,-1,-1,-1,-1,-1,-1,-1,-1,-1,-1,-1,-1,-1,-1,-1,116,49,48,123,47,44,123,123,123,123,123,46,46,123,-1,-1,-1
116,50,46,45,46,46,50,43,44,45,50,45,44,45,47,116,116,116,116,116,-1,-1,-1,-1,116,116,116,116,116,116,116,116,116,116,46,45,123,46,45,50,44,46,47,48,47,46,123,-1,-1,-1
116,45,48,49,45,48,44,46,44,48,44,50,46,46,47,50,43,43,44,116,-1,-1,-1,-1,116,47,50,43,50,45,49,45,48,48,46,49,123,48,44,49,45,50,44,45,44,46,123,-1,-1,-1
116,48,47,46,47,45,46,48,44,48,43,45,44,47,48,43,46,47,46,116,116,116,116,116,116,50,45,45,43,47,44,44,47,46,50,47,123,49,50,45,50,45,48,46,48,46,123,-1,-1,-1
116,45,50,44,45,48,44,48,45,78,44,49,44,49,48,43,49,43,47,45,43,48,44,43,43,46,43,45,47,43,50,50,50,49,49,45,123,123,123,46,44,45,123,123,123,123,123,-1,-1,-1
116,46,46,45,50,49,46,47,44,45,46,46,44,48,48,44,44,49,47,47,44,44,49,44,47,46,44,47,60,44,44,45,45,43,43,50,45,46,123,49,47,49,123,-1,-1,-1,-1,-1,-1,-1
116,45,48,47,45,48,43,44,46,44,43,44,47,43,45,50,43,49,48,116,116,116,116,116,116,49,47,45,46,43,48,45,44,43,50,46,44,44,123,45,46,43,123,-1,-1,-1,-1,-1,-1,-1
116,46,48,50,50,46,45,48,50,47,43,49,49,45,43,46,47,49,48,116,-1,-1,-1,-1,116,48,49,45,47,45,45,49,116,116,116,116,116,116,116,44,44,47,123,116,116,116,116,116,116,116
116,116,116,116,47,43,49,46,46,46,48,47,46,49,44,49,46,45,45,116,-1,-1,-1,-1,116,48,45,50,48,50,49,116,116,50,49,45,47,49,45,46,49,45,43,43,48,47,44,44,47,116
-1,-1,-1,116,48,49,47,48,46,48,50,50,47,46,43,44,45,50,46,116,-1,-1,-1,-1,116,45,46,44,47,50,47,116,43,44,50,50,49,47,48,49,44,43,46,46,46,47,47,47,48,116
-1,-1,-1,116,46,44,43,44,50,43,43,47,44,44,48,49,45,45,47,116,-1,-1,-1,-1,116,48,43,50,49,50,46,116,48,50,49,45,49,50,44,49,48,50,50,50,47,48,48,46,46,116
-1,-1,-1,116,46,44,47,44,44,45,45,48,49,44,43,116,116,116,116,116,-1,-1,-1,116,116,47,48,48,48,45,116,116,48,43,43,50,49,43,44,46,50,43,48,50,50,44,48,45,45,116
-1,-1,-1,116,44,50,43,49,44,45,78,46,43,47,47,116,-1,-1,-1,-1,-1,-1,-1,116,47,43,48,43,44,50,116,43,43,47,43,123,123,50,48,48,45,49,49,45,123,123,47,45,43,116
116,116,116,116,49,48,49,44,43,44,46,44,47,45,48,116,-1,-1,-1,-1,-1,-1,-1,116,44,46,50,43,47,44,116,47,43,50,50,123,123,48,43,46,44,50,43,50,123,123,43,45,46,116
116,44,50,47,47,44,49,44,47,43,47,43,49,50,47,116,-1,-1,-1,-1,-1,-1,-1,116,43,44,46,45,44,43,116,43,44,47,45,46,45,44,47,48,49,48,47,47,45,49,44,43,49,116
116,43,48,50,48,50,43,49,46,46,45,44,49,46,44,116,-1,-1,-1,-1,-1,-1,-1,116,47,45,44,46,47,46,116,43,43,44,47,47,50,44,46,49,49,45,50,50,50,48,46,43,45,116
116,43,45,46,47,45,43,50,49,48,44,50,45,50,47,116,-1,-1,-1,-1,-1,-1,-1,116,43,44,50,50,49,49,116,50,46,50,50,48,44,43,48,46,50,46,48,50,43,47,48,47,48,116
116,47,47,45,46,45,44,43,44,43,43,43,47,49,45,116,-1,-1,-1,-1,-1,-1,-1,116,116,116,116,116,116,116,116,43,43,47,45,43,49,45,47,46,43,48,43,44,50,44,44,44,46,116
116,116,116,116,116,116,116,116,46,44,116,116,116,116,116,116,116,-1,-1,-1,-1,-1,-1,-1,-1,-1,-1,-1,-1,-1,116,49,50,43,49,48,49,46,45,44,50,48,43,44,46,48,43,49,43,116
-1,-1,-1,-1,-1,-1,-1,116,44,46,116,-1,-1,-1,-1,-1,-1,-1,-1,-1,116,116,116,116,116,116,116,116,-1,-1,116,50,47,43,45,43,48,50,47,50,50,48,43,45,43,44,50,43,50,116
-1,-1,-1,-1,-1,-1,-1,116,45,49,116,-1,-1,-1,-1,-1,-1,-1,116,116,116,45,43,50,43,49,50,116,-1,-1,116,50,45,44,49,50,45,45,45,45,50,46,45,47,44,49,46,45,45,116
116,116,116,116,116,116,116,116,43,48,116,116,116,116,116,116,-1,-1,116,50,43,43,49,46,45,49,48,116,-1,-1,116,44,47,43,44,45,44,49,43,47,45,82,81,80,83,47,46,49,46,116
116,45,43,49,43,43,116,44,49,46,47,47,49,49,43,116,-1,-1,116,43,49,20,45,46,44,20,49,116,-1,-1,116,116,116,116,116,47,48,43,45,45,50,123,123,123,123,48,46,49,43,116
116,44,46,44,43,50,116,43,44,43,46,47,45,46,49,116,116,116,116,47,50,49,45,48,46,44,46,116,-1,-1,116,50,47,50,116,50,47,45,49,50,50,50,50,46,50,47,47,44,47,116
116,48,65,46,50,50,47,48,45,60,45,43,47,46,43,44,50,49,48,45,43,48,48,50,47,50,48,116,-1,-1,116,48,44,45,44,43,50,48,47,43,44,46,44,46,48,44,43,49,46,116
116,49,44,48,49,44,47,50,44,50,46,46,50,50,50,50,43,47,46,50,44,20,50,50,50,20,47,116,-1,-1,116,48,58,43,50,45,50,48,44,44,48,44,46,47,44,45,50,45,48,116
116,50,44,49,50,48,116,49,45,46,43,43,43,49,46,116,116,116,116,43,48,48,48,48,46,47,50,116,-1,-1,116,45,45,47,116,47,50,50,44,50,48,48,45,48,43,46,48,48,46,116
116,116,116,116,116,116,116,116,116,116,116,116,116,116,116,116,-1,-1,116,116,116,116,116,116,116,116,116,116,-1,-1,116,116,116,116,116,116,116,116,116,116,116,116,116,116,116,116,116,116,116,116
